…
This is a problem if you want to understand how frequencies differ by certain categories (in the above example, how gas milage frequencies differ by the number of cyclinders a car has). 

This problem can be solved, however, by simply lifting the relevant count() and mutate() commands applied 
by the tabyl() function and by then using them directly (in the following order!):

    > mtcars %>% group_by(cyl) %>% count(mpg) %>% mutate(percent = n / sum(n, na.rm = TRUE))
    Source: local data frame [27 x 4]
    Groups: cyl [3]

         cyl   mpg     n    percent
        <dbl> <dbl> <int>      <dbl>
    1      4  21.4     1 0.09090909
    2      4  21.5     1 0.09090909
    3      4  22.8     2 0.18181818
    4      4  24.4     1 0.09090909
    5      4  26.0     1 0.09090909
    6      4  27.3     1 0.09090909
    7      4  30.4     2 0.18181818
    8      4  32.4     1 0.09090909
    9      4  33.9     1 0.09090909
    10     6  17.8     1 0.14285714
    # ... with 17 more rows
…
